/* XPM */
/* Drawn  by Mark Donohoe for the K Desktop Environment */
/* See http://www.kde.org */
static char*partition[]={
"32 32 16 1",
"# c #000000",
"c c #008000",
"e c #00c000",
"n c #000000",
"h c #008080",
"j c #00c0c0",
"g c #00ffff",
"f c #303030",
"l c #808000",
"m c #c0c000",
"k c #ffff00",
"a c #c0ffc0",
"d c #c0ffff",
"i c #ffffc0",
"b c #00ff00",
". c None",
"................................",
"...........#....................",
"..........#a##..................",
".........#aaaa##................",
"........#aaaaaaa##..............",
".......#aaaaaaaabc#.............",
"......#bbaaaaaabcc#.............",
".....#bbbbbaaabccc#...#.........",
"....#bbbbbbbbbcccc#..#d##.......",
"....#eebbbbbbcccccf.#dddd##.....",
"....#eeeebbbccccccf#ddddddd##...",
"....#eeeeeeccccccc#ddddddddgh#..",
"....#eeeeeecccccc#ggddddddghh#..",
"....#eeeeeeccccc#gggggdddghhh#..",
"....#eeeee#cccc#ggggggggghhhh#..",
"....#eeee#i##cc#jjgggggghhhhh#..",
".....####iiii###jjjjggghhhhhh#..",
".......#iiiiiii##jjjjjhhhhhhh#..",
"......#iiiiiiiikl#jjjjhhhhhh#...",
".....#kkiiiiiikll#jjjjhhhhh#....",
"....#kkkkkiiiklll#jjjjhhhh#.....",
"...#kkkkkkkkkllll#jjjjhhh#......",
"...#mmkkkkkklllll#jjjjhh#.......",
"...nmmmmkkkllllll###jjh#........",
"...#mmmmmmlllllll#..###.........",
"...#mmmmmmllllll#...............",
"...nmmmmmmlllll#................",
"...#mmmmmmllll#.................",
"...#mmmmmmlll#..................",
"....##mmmmll#...................",
"......##mml#....................",
"........###....................."};

